<?xml version="1.0" encoding="utf-8"?>
<!-- Generator: Adobe Illustrator 24.0.0, SVG Export Plug-In . SVG Version: 6.00 Build 0)  -->
<svg version="1.1" id="Capa_1" xmlns="http://www.w3.org/2000/svg" xmlns:xlink="http://www.w3.org/1999/xlink" x="0px" y="0px"
	 viewBox="0 0 371.6 371.6" style="enable-background:new 0 0 371.6 371.6;" xml:space="preserve">
<style type="text/css">
	.st0{fill:#FFFFFF;}
</style>
<g>
	<g>
		<rect x="105.1" y="38.3" class="st0" width="163.8" height="20"/>
	</g>
	<g>
		<path class="st0" d="M311.6,190.2c-7.4-9.3-18.4-16.2-32.7-20.5V30c0-16.5-13.5-30-30-30H125.1c-16.5,0-30,13.5-30,30v120.1h-8.3
			c-16.5,0-30,13.5-30,30v1.3c0,5.9,1.7,11.3,4.6,15.9c-7.3,5.5-12.1,14.2-12.1,24.1v1.3c0,9.8,4.8,18.6,12.1,24.1
			c-2.9,4.6-4.6,10.1-4.6,15.9v1.3c0,16.5,13.5,30,30,30h8.3c0.4,11.6,7.5,21.6,17.5,26.2c0.9,10.5,4.1,30.2,14.8,45.5
			c1.9,2.8,5.1,4.3,8.2,4.3c2,0,4-0.6,5.7-1.8c4.5-3.2,5.6-9.4,2.5-13.9c-6.8-9.8-9.6-22.6-10.8-31.4h82.7c0.3,0.4,0.5,0.8,0.8,1.2
			c3.1,4.5,9.4,5.7,13.9,2.5c4.5-3.1,5.7-9.4,2.5-13.9c-11.9-17.2-8.8-35.9,9.6-57c3.1-2.7,12.3-11.7,11.2-24
			c-0.8-9.3-7.1-17.2-18.7-23.3c-0.3-0.2-0.7-0.3-1.1-0.5c-0.5-0.2-11.4-4.6-9.7-15.7c1-6.7,14.8-8.3,23.8-7.7
			c23.2,1.6,39.7,7.8,47.8,18c5.8,7.2,7.6,16.6,5.7,28.7c-0.4,2.6-0.8,5.2-1.2,8c-5.8,37.2-12.9,83.5-49.9,114.7
			c-4.2,3.6-4.8,9.9-1.2,14.1c2,2.3,4.8,3.6,7.6,3.6c2.3,0,4.6-0.8,6.4-2.4c42.7-36,50.8-88.5,56.7-126.9c0.4-2.7,0.8-5.3,1.2-7.9
			C324.2,216.8,320.9,201.9,311.6,190.2z M79.3,232.8c-5.5,0-10-4.5-10-10v-1.3c0-5.5,4.5-10,10-10h7.5h7.5v21.3h-7.5L79.3,232.8
			L79.3,232.8z M76.8,180.1c0-5.5,4.5-10,10-10h7.5v21.3h-7.5c-5.5,0-10-4.5-10-10V180.1z M94.3,274.1h-7.5c-5.5,0-10-4.5-10-10
			v-1.3c0-5.5,4.5-10,10-10h7.5V274.1z M125.1,303c-5.5,0-10-4.5-10-10v-8.3h91.5c-0.9,6.7-0.4,12.8,0.7,18.3H125.1z M204.6,189.3
			c-3.1,20.9,12.4,33.2,21.6,37c5.4,3,7.6,5.6,7.7,7.2c0.2,2.1-2.6,5.7-4.5,7.3c-0.5,0.4-0.9,0.8-1.3,1.3c-7,7.9-12,15.5-15.4,22.7
			h-97.6V30c0-5.5,4.5-10,10-10h123.8c5.5,0,10,4.5,10,10v135.6c-3-0.4-6.1-0.7-9.4-0.9C224.3,163,207.1,172.4,204.6,189.3z"/>
		<path class="st0" d="M179.1,83.2h-24.1c-2.8,0-5,2.2-5,5v24.1c0,2.8,2.2,5,5,5h24.1c2.8,0,5-2.2,5-5V88.2
			C184.1,85.4,181.9,83.2,179.1,83.2z"/>
		<path class="st0" d="M172.6,142.9h-12.6v-12.1c0-2.8-2.2-5-5-5s-5,2.2-5,5v17.1c0,2.8,2.2,5,5,5h17.6c2.8,0,5-2.2,5-5
			C177.6,145.1,175.4,142.9,172.6,142.9z"/>
		<path class="st0" d="M216.6,83.2h-24.1c-2.8,0-5,2.2-5,5v24.1c0,2.8,2.2,5,5,5h24.1c2.8,0,5-2.2,5-5V88.2
			C221.6,85.4,219.3,83.2,216.6,83.2z M211.6,107.2h-14.1V93.2h14.1V107.2z"/>
		<path class="st0" d="M211.7,125.9h-14.3c-2.8,0-5,2.2-5,5v14.3c0,2.8,2.2,5,5,5h14.3c2.8,0,5-2.2,5-5v-14.3
			C216.7,128.2,214.4,125.9,211.7,125.9z"/>
	</g>
</g>
</svg>
